{
    "count": 31044,
    "page": 1,
    "page_count": 100,
    "page_size": 100,
    "products": [
        {
            "_id": "5410188031072",
            "categories_tags": [
                "en:meals",
                "en:vegetable-soups",
                "en:cold-soups",
                "en:refrigerated-meals",
                "en:gazpacho",
                "en:refrigerated-soups"
            ],
            "image_front_url": "https://static.openfoodfacts.org/images/products/541/018/803/1072/front_fr.120.400.jpg",
            "image_nutrition_small_url": "https://static.openfoodfacts.org/images/products/541/018/803/1072/nutrition_fr.122.200.jpg",
            "nutriscore_grade": "a",
            "product_name": "Gazpacho",
            "url": "https://fr.openfoodfacts.org/produit/5410188031072/gazpacho-alvalle"
        },
        {
            "_id": "5410041001204",
            "categories_tags": [
                "en:snacks",
                "en:salty-snacks",
                "en:appetizers",
                "en:meals",
                "en:crackers",
                "en:starters"
            ],
            "image_front_url": "https://static.openfoodfacts.org/images/products/541/004/100/1204/front_fr.97.400.jpg",
            "image_nutrition_small_url": "https://static.openfoodfacts.org/images/products/541/004/100/1204/nutrition_fr.251.200.jpg",
            "nutriscore_grade": "d",
            "product_name": "TUC Original",
            "url": "https://fr.openfoodfacts.org/produit/5410041001204/tuc-original-lu"
        }
    ]
}